^C:\USERS\RILEY\SOURCE\REPOS\CIWB\CIWB\RELEASE\APPLICATION.OBJ|C:\USERS\RILEY\SOURCE\REPOS\CIWB\CIWB\RELEASE\CIWB.OBJ|C:\USERS\RILEY\SOURCE\REPOS\CIWB\CIWB\RELEASE\CLIENTCONNECTION.OBJ|C:\USERS\RILEY\SOURCE\REPOS\CIWB\CIWB\RELEASE\CLIENTWORLD.OBJ|C:\USERS\RILEY\SOURCE\REPOS\CIWB\CIWB\RELEASE\DARRAY.OBJ|C:\USERS\RILEY\SOURCE\REPOS\CIWB\CIWB\RELEASE\FILEUTILS.OBJ|C:\USERS\RILEY\SOURCE\REPOS\CIWB\CIWB\RELEASE\IMAGE.OBJ|C:\USERS\RILEY\SOURCE\REPOS\CIWB\CIWB\RELEASE\INPUTHANDLER.OBJ|C:\USERS\RILEY\SOURCE\REPOS\CIWB\CIWB\RELEASE\IVEC2.OBJ|C:\USERS\RILEY\SOURCE\REPOS\CIWB\CIWB\RELEASE\LAYEREDNOISE2D.OBJ|C:\USERS\RILEY\SOURCE\REPOS\CIWB\CIWB\RELEASE\MAIN.OBJ|C:\USERS\RILEY\SOURCE\REPOS\CIWB\CIWB\RELEASE\MAT3.OBJ|C:\USERS\RILEY\SOURCE\REPOS\CIWB\CIWB\RELEASE\MAT4.OBJ|C:\USERS\RILEY\SOURCE\REPOS\CIWB\CIWB\RELEASE\MESH.OBJ|C:\USERS\RILEY\SOURCE\REPOS\CIWB\CIWB\RELEASE\MINIZ.OBJ|C:\USERS\RILEY\SOURCE\REPOS\CIWB\CIWB\RELEASE\MODEL.OBJ|C:\USERS\RILEY\SOURCE\REPOS\CIWB\CIWB\RELEASE\MULTIPLAYERCLIENTWORLD.OBJ|C:\USERS\RILEY\SOURCE\REPOS\CIWB\CIWB\RELEASE\PERLINNOISE2D.OBJ|C:\USERS\RILEY\SOURCE\REPOS\CIWB\CIWB\RELEASE\PERLINNOISE3D.OBJ|C:\USERS\RILEY\SOURCE\REPOS\CIWB\CIWB\RELEASE\POOLALLOCATOR.OBJ|C:\USERS\RILEY\SOURCE\REPOS\CIWB\CIWB\RELEASE\QUATERNION.OBJ|C:\USERS\RILEY\SOURCE\REPOS\CIWB\CIWB\RELEASE\REGION.OBJ|C:\USERS\RILEY\SOURCE\REPOS\CIWB\CIWB\RELEASE\REGIONMANAGER.OBJ|C:\USERS\RILEY\SOURCE\REPOS\CIWB\CIWB\RELEASE\REGIONMESH.OBJ|C:\USERS\RILEY\SOURCE\REPOS\CIWB\CIWB\RELEASE\REGIONRLE.OBJ|C:\USERS\RILEY\SOURCE\REPOS\CIWB\CIWB\RELEASE\RENDERER.OBJ|C:\USERS\RILEY\SOURCE\REPOS\CIWB\CIWB\RELEASE\SERVERCONNECTION.OBJ|C:\USERS\RILEY\SOURCE\REPOS\CIWB\CIWB\RELEASE\SHADER.OBJ|C:\USERS\RILEY\SOURCE\REPOS\CIWB\CIWB\RELEASE\SINGLEPLAYERCLIENTWORLD.OBJ|C:\USERS\RILEY\SOURCE\REPOS\CIWB\CIWB\RELEASE\TEXTURE.OBJ|C:\USERS\RILEY\SOURCE\REPOS\CIWB\CIWB\RELEASE\TRANSFORM.OBJ|C:\USERS\RILEY\SOURCE\REPOS\CIWB\CIWB\RELEASE\VEC2.OBJ|C:\USERS\RILEY\SOURCE\REPOS\CIWB\CIWB\RELEASE\VEC3.OBJ|C:\USERS\RILEY\SOURCE\REPOS\CIWB\CIWB\RELEASE\VEC4.OBJ|C:\USERS\RILEY\SOURCE\REPOS\CIWB\CIWB\RELEASE\WINDOW.OBJ|C:\USERS\RILEY\SOURCE\REPOS\CIWB\CIWB\RELEASE\WORLD.OBJ
/OUT:"C:\USERS\RILEY\SOURCE\REPOS\CIWB\RELEASE\CIWBCLIENT.EXE" /INCREMENTAL:NO /NOLOGO /LIBPATH:C:\USERS\RILEY\SOURCE\REPOS\CIWB\LIB/X86/RELEASE GLFW3.LIB OPENGL32.LIB GLEW32S.LIB FREEIMAGE.LIB ENET.LIB ASSIMP.LIB LIBNOISE.LIB WS2_32.LIB WINMM.LIB KERNEL32.LIB USER32.LIB GDI32.LIB WINSPOOL.LIB COMDLG32.LIB ADVAPI32.LIB SHELL32.LIB OLE32.LIB OLEAUT32.LIB UUID.LIB ODBC32.LIB ODBCCP32.LIB /MANIFEST /MANIFESTUAC:"level='asInvoker' uiAccess='false'" /manifest:embed /DEBUG /PDB:"C:\USERS\RILEY\SOURCE\REPOS\CIWB\RELEASE\CIWBCLIENT.PDB" /SUBSYSTEM:CONSOLE /OPT:REF /OPT:ICF /LTCG:incremental /TLBID:1 /DYNAMICBASE /NXCOMPAT /IMPLIB:"C:\USERS\RILEY\SOURCE\REPOS\CIWB\RELEASE\CIWBCLIENT.LIB" /MACHINE:X86 /SAFESEH:NO RELEASE\DARRAY.OBJ
RELEASE\IVEC2.OBJ
RELEASE\MAT3.OBJ
RELEASE\MAT4.OBJ
RELEASE\QUATERNION.OBJ
RELEASE\TRANSFORM.OBJ
RELEASE\VEC2.OBJ
RELEASE\VEC3.OBJ
RELEASE\VEC4.OBJ
RELEASE\POOLALLOCATOR.OBJ
RELEASE\CLIENTCONNECTION.OBJ
RELEASE\SERVERCONNECTION.OBJ
RELEASE\LAYEREDNOISE2D.OBJ
RELEASE\PERLINNOISE2D.OBJ
RELEASE\PERLINNOISE3D.OBJ
RELEASE\FILEUTILS.OBJ
RELEASE\IMAGE.OBJ
RELEASE\MINIZ.OBJ
RELEASE\REGION.OBJ
RELEASE\REGIONMANAGER.OBJ
RELEASE\REGIONRLE.OBJ
RELEASE\WORLD.OBJ
RELEASE\MODEL.OBJ
RELEASE\REGIONMESH.OBJ
RELEASE\CLIENTWORLD.OBJ
RELEASE\MULTIPLAYERCLIENTWORLD.OBJ
RELEASE\SINGLEPLAYERCLIENTWORLD.OBJ
RELEASE\MAIN.OBJ
RELEASE\APPLICATION.OBJ
RELEASE\WINDOW.OBJ
RELEASE\MESH.OBJ
RELEASE\TEXTURE.OBJ
RELEASE\RENDERER.OBJ
RELEASE\SHADER.OBJ
RELEASE\INPUTHANDLER.OBJ
RELEASE\CIWB.OBJ
